{
  "project_info": {
    "project_number": "848292049031",
    "firebase_url": "https://moodlynktestproject.firebaseio.com",
    "project_id": "moodlynktestproject",
    "storage_bucket": "moodlynktestproject.appspot.com"
  },
  "client": [
    {
      "client_info": {
        "mobilesdk_app_id": "1:848292049031:android:aba730c630ea3ec5",
        "android_client_info": {
          "package_name": "www.chatapp.com.chatapplicationpoc"
        }
      },
      "oauth_client": [
        {
          "client_id": "848292049031-4knlflhtjq4ce824ibp3rb1kqmjkkkav.apps.googleusercontent.com",
          "client_type": 1,
          "android_info": {
            "package_name": "www.chatapp.com.chatapplicationpoc",
            "certificate_hash": "C82B6194F5D3D18D2DA29B428CF46569A31B1179"
          }
        },
        {
          "client_id": "848292049031-t9qshbbpf59r21estkreq7usb7vq7om7.apps.googleusercontent.com",
          "client_type": 3
        }
      ],
      "api_key": [
        {
          "current_key": "AIzaSyC_3kFE5Sx9h550MuvTcqIFnC_QLQ94yBk"
        }
      ],
      "services": {
        "analytics_service": {
          "status": 1
        },
        "appinvite_service": {
          "status": 2,
          "other_platform_oauth_client": [
            {
              "client_id": "848292049031-t9qshbbpf59r21estkreq7usb7vq7om7.apps.googleusercontent.com",
              "client_type": 3
            }
          ]
        },
        "ads_service": {
          "status": 2
        }
      }
    }
  ],
  "configuration_version": "1"
}